<svg width="1440" height="1569" viewBox="0 0 1440 1569" fill="none" xmlns="http://www.w3.org/2000/svg">
<g style="mix-blend-mode:screen">
<ellipse cx="364" cy="196" rx="792" ry="585" fill="url(#paint0_radial)"/>
</g>
<g style="mix-blend-mode:screen">
<path d="M1118.16 585.676C1310.99 428.454 1594.77 457.323 1751.99 650.156C1909.21 842.99 1880.34 1126.77 1687.51 1283.99C1494.67 1441.21 1210.9 1412.34 1053.68 1219.51C896.454 1026.67 925.323 742.899 1118.16 585.676Z" fill="url(#paint1_radial)" fill-opacity="0.7"/>
</g>
<defs>
<radialGradient id="paint0_radial" cx="0" cy="0" r="1" gradientUnits="userSpaceOnUse" gradientTransform="translate(363.411 108.614) rotate(89.9498) scale(672.386 910.308)">
<stop offset="0.208333" stop-color="#6F3C93"/>
<stop offset="0.21875" stop-color="#6F3C93"/>
<stop offset="0.901042" stop-color="#222053" stop-opacity="0"/>
</radialGradient>
<radialGradient id="paint1_radial" cx="0" cy="0" r="1" gradientUnits="userSpaceOnUse" gradientTransform="translate(1384.5 935) rotate(-152.579) scale(509.209 509.21)">
<stop offset="0.21875" stop-color="#6F3C93"/>
<stop offset="0.942708" stop-color="#222053" stop-opacity="0"/>
</radialGradient>
</defs>
</svg>
